<?xml version="1.0" encoding="utf-8"?>
<!-- Generator: Adobe Illustrator 18.1.1, SVG Export Plug-In . SVG Version: 6.00 Build 0)  -->
<svg version="1.1" id="Layer_1" xmlns="http://www.w3.org/2000/svg" xmlns:xlink="http://www.w3.org/1999/xlink" x="0px" y="0px"
	 viewBox="0 0 15.3 20" enable-background="new 0 0 15.3 20" xml:space="preserve">
<g>
	<polygon fill="#FFFFFF" points="0,20 0,-0.1 14.4,10.2 	"/>
</g>
</svg>
