<?xml version="1.0" encoding="utf-8"?>
<!-- Generator: Adobe Illustrator 18.1.1, SVG Export Plug-In . SVG Version: 6.00 Build 0)  -->
<svg version="1.1" id="Layer_1" xmlns="http://www.w3.org/2000/svg" xmlns:xlink="http://www.w3.org/1999/xlink" x="0px" y="0px"
	 viewBox="0 0 20.2 20.2" enable-background="new 0 0 20.2 20.2" xml:space="preserve">
<g>
	<path fill="#BE1E2D" d="M10.6,0.4h1.4c0,0.7,0,1.3,0,2c2.2-0.3,4.5-0.3,6.6,0.5c0.8,0.3,1.6,0.9,1.6,1.8c0,3.5,0,7,0,10.4
		c0.1,1-0.8,1.6-1.6,1.8c-2.1,0.7-4.4,0.8-6.5,0.5c0,0.8,0,1.6,0,2.4h-1.4C7.1,19.2,3.6,18.7,0.2,18c0-5.3,0-10.6,0-15.8
		C3.6,1.6,7.1,1,10.6,0.4z"/>
	<path fill="#FFFFFF" d="M11.9,3.1c2-0.3,4.1-0.3,6.1,0.3c0.5,0.2,1.3,0.4,1.4,1.1c-0.1,0.5-0.6,0.8-1.1,1c-2.1,0.7-4.3,0.8-6.4,0.4
		C11.9,4.9,11.9,4,11.9,3.1z"/>
	<path fill="#FFFFFF" d="M16.5,6.6c1-0.1,2-0.4,2.8-1c0,1,0.1,2-0.1,2.9c-0.4,0.5-1,0.7-1.6,0.8c-1.9,0.4-3.9,0.5-5.8,0.2
		c0-1,0-2,0-2.9C13.5,6.8,15,6.8,16.5,6.6z"/>
	<path fill="#FFFFFF" d="M16.6,10.2c1-0.1,2-0.4,2.8-1c0,1,0.1,1.9-0.1,2.9c-0.4,0.5-1,0.7-1.6,0.8c-1.9,0.5-3.9,0.5-5.8,0.2
		c0-1,0-2,0-2.9C13.5,10.4,15,10.4,16.6,10.2z"/>
	<path fill="#FFFFFF" d="M16.6,13.8c1-0.1,2-0.4,2.8-1c0,1,0.1,2-0.1,2.9c-0.6,0.7-1.7,0.8-2.5,1c-1.6,0.2-3.3,0.3-4.9,0
		c0-1,0-1.9,0-2.9C13.5,14,15,14,16.6,13.8z"/>
</g>
<g>
	<path fill="#FFFFFF" d="M5.5,6.4c0,0,0.1-0.5-0.3-0.5c-0.5,0-0.4,1-0.4,1s0.1,1.3,0.5,2.2c0.5,1,1.4,2.3,3.7,2.6c0,0,0.5,0,0.5-0.3
		c0,0,0,0.2-0.5,0.1C7.9,11.4,6.3,10.7,5.6,9C5.2,8,4.9,6,5.2,6c0.1,0,0.2,0,0.2,0.6C5.4,6.6,5.4,6.6,5.5,6.4z"/>
	<path fill="#FFFFFF" d="M5.4,7.1c0,0-0.2,1.9-1.2,3.8c-0.5,1-1.2,2.3-1.9,2.8c0,0-0.5,0.3-0.5,0c0-0.1,0.6-0.9,1.5-1.6
		c0,0-1.7,1-1.7,1.5c0,0.4,0.4,0.5,0.8,0.2c0.2-0.1,1-0.8,1.9-2.9c0,0,0.9-1.7,1-2.6C5.5,7.4,5.4,7.1,5.4,7.1z"/>
	<path fill="#FFFFFF" d="M9.5,11.3c0,0-0.1-0.4-0.8-0.4c-0.9-0.1-2.9,0.2-4.9,1c0,0,2.9-0.7,3.5-0.7C8,11,8.6,10.9,8.9,11
		C9.3,11.1,9.5,11.3,9.5,11.3C9.5,11.4,9.5,11.3,9.5,11.3z"/>
	<g>
		<path fill="#FFFFFF" d="M9.4,11.9C9.5,11.9,9.5,11.9,9.4,11.9c0.1,0,0.1,0.1,0.1,0.1c0,0,0,0.1,0,0.1c0,0,0,0.1,0,0.1
			c0,0,0,0-0.1,0.1c0,0-0.1,0-0.1,0c0,0-0.1,0-0.1,0c0,0,0,0-0.1-0.1c0,0,0-0.1,0-0.1c0,0,0-0.1,0-0.1C9.3,12,9.3,11.9,9.4,11.9
			C9.4,11.9,9.4,11.9,9.4,11.9z M9.4,11.9C9.4,11.9,9.4,11.9,9.4,11.9c-0.1,0-0.1,0-0.1,0.1c0,0,0,0,0,0.1c0,0,0,0,0,0.1
			c0,0,0,0,0.1,0.1c0,0,0,0,0.1,0c0,0,0,0,0.1,0c0,0,0,0,0.1-0.1c0,0,0,0,0-0.1c0,0,0,0,0-0.1C9.5,12,9.5,12,9.4,11.9
			C9.5,11.9,9.5,11.9,9.4,11.9z M9.4,12.2V12h0.1c0,0,0,0,0,0c0,0,0,0,0,0c0,0,0,0,0,0c0,0,0,0,0,0S9.5,12.1,9.4,12.2
			c0.1-0.1,0.1-0.1,0.1-0.1c0,0,0,0,0,0l0,0h0l0,0C9.4,12.1,9.4,12.1,9.4,12.2C9.4,12.1,9.4,12.1,9.4,12.2L9.4,12.2L9.4,12.2
			L9.4,12.2z M9.4,12.1L9.4,12.1C9.4,12.1,9.5,12.1,9.4,12.1C9.5,12,9.5,12,9.4,12.1C9.5,12,9.5,12,9.4,12.1C9.5,12,9.5,12,9.4,12.1
			C9.4,12,9.4,12,9.4,12.1L9.4,12.1L9.4,12.1z"/>
	</g>
</g>
</svg>
